{
  "sensors": [
    {
      "id": 1,
      "type": "microphone",
      "sid": "randomId"
    },
    {
      "id": 2,
      "type": "microphone",
      "sid": "randomId2"
    },
    {
      "type": "homosexualidade",
      "sid": "69",
      "id": 3
    },
    {
      "type": "jhjjbnjnjhj",
      "sid": "tyughuguju",
      "id": 4
    }
  ],
  "users": [
    {
      "id": 1,
      "name": "Luís Silva",
      "email": "lfssilva@ua.pt",
      "type": "admin"
    },
    {
      "id": 2,
      "name": "Tiago Ramalho",
      "email": "ramalho22@ua.pt",
      "type": "regular"
    }
  ],
  "rooms": [
    {
      "id": "1",
      "name": "107",
      "location": "DETI2",
      "sensor": "1"
    },
    {
      "id": "2",
      "name": "109",
      "location": "DETI",
      "sensor": "2"
    },
    {
      "name": "Quarto Do Branco",
      "location": "Cacia",
      "id": 3
    },
    {
      "name": "iuytr",
      "location": "iuytr",
      "id": 4
    }
  ]
}